Manipulação de Dados
…
Funcionamento geral do verbos do tidyverse

Unidade primária de manipulação é o data.frame e ou tibble, e as colunas presentes neles;

Todo o verbo é interpretado através de lazy evaluation: a primeira coisa que você fornece para a função é o conjunto de dados; a partir daí, a própria função entende que tudo o que você for fazer é em referência às informações que estão ali - elimina a necessidade de indexação.

A idéia geral aqui é encurtar o espaço entre o que você quer fazer e o resultado (ou seja, entre a pergunta e a resposta), sem importar o tamanho do conjunto de dados.

Para provar estes pontos, vamos utilizar o conjunto de dados gapminder que carregamos no início da aula.

gapminder

gapminder

## # A tibble: 1,704 x 6
##    country     continent  year lifeExp      pop gdpPercap
##    <fct>       <fct>     <int>   <dbl>    <int>     <dbl>
##  1 Afghanistan Asia       1952    28.8  8425333      779.
##  2 Afghanistan Asia       1957    30.3  9240934      821.
##  3 Afghanistan Asia       1962    32.0 10267083      853.
##  4 Afghanistan Asia       1967    34.0 11537966      836.
##  5 Afghanistan Asia       1972    36.1 13079460      740.
##  6 Afghanistan Asia       1977    38.4 14880372      786.
##  7 Afghanistan Asia       1982    39.9 12881816      978.
##  8 Afghanistan Asia       1987    40.8 13867957      852.
##  9 Afghanistan Asia       1992    41.7 16317921      649.
## 10 Afghanistan Asia       1997    41.8 22227415      635.
## # ... with 1,694 more rows

rename

Utilizada para renomear colunas específicas, contornando a necessidade de indexação.

rename(.data = gapminder, pais = country, continente = continent, ano = year)

## # A tibble: 1,704 x 6
##    pais        continente   ano lifeExp      pop gdpPercap
##    <fct>       <fct>      <int>   <dbl>    <int>     <dbl>
##  1 Afghanistan Asia        1952    28.8  8425333      779.
##  2 Afghanistan Asia        1957    30.3  9240934      821.
##  3 Afghanistan Asia        1962    32.0 10267083      853.
##  4 Afghanistan Asia        1967    34.0 11537966      836.
##  5 Afghanistan Asia        1972    36.1 13079460      740.
##  6 Afghanistan Asia        1977    38.4 14880372      786.
##  7 Afghanistan Asia        1982    39.9 12881816      978.
##  8 Afghanistan Asia        1987    40.8 13867957      852.
##  9 Afghanistan Asia        1992    41.7 16317921      649.
## 10 Afghanistan Asia        1997    41.8 22227415      635.
## # ... with 1,694 more rows

arrange

Utilizada para ordernar as linhas de uma tabela em ordem crescente ou decrescente.

arrange(.data = gapminder, year)

## Warning: package 'bindrcpp' was built under R version 3.4.4

## # A tibble: 1,704 x 6
##    country     continent  year lifeExp      pop gdpPercap
##    <fct>       <fct>     <int>   <dbl>    <int>     <dbl>
##  1 Afghanistan Asia       1952    28.8  8425333      779.
##  2 Albania     Europe     1952    55.2  1282697     1601.
##  3 Algeria     Africa     1952    43.1  9279525     2449.
##  4 Angola      Africa     1952    30.0  4232095     3521.
##  5 Argentina   Americas   1952    62.5 17876956     5911.
##  6 Australia   Oceania    1952    69.1  8691212    10040.
##  7 Austria     Europe     1952    66.8  6927772     6137.
##  8 Bahrain     Asia       1952    50.9   120447     9867.
##  9 Bangladesh  Asia       1952    37.5 46886859      684.
## 10 Belgium     Europe     1952    68    8730405     8343.
## # ... with 1,694 more rows

arrange

Utilizada para ordernar as linhas de uma tabela em ordem crescente ou decrescente.

arrange(.data = gapminder, desc(year))

## # A tibble: 1,704 x 6
##    country     continent  year lifeExp       pop gdpPercap
##    <fct>       <fct>     <int>   <dbl>     <int>     <dbl>
##  1 Afghanistan Asia       2007    43.8  31889923      975.
##  2 Albania     Europe     2007    76.4   3600523     5937.
##  3 Algeria     Africa     2007    72.3  33333216     6223.
##  4 Angola      Africa     2007    42.7  12420476     4797.
##  5 Argentina   Americas   2007    75.3  40301927    12779.
##  6 Australia   Oceania    2007    81.2  20434176    34435.
##  7 Austria     Europe     2007    79.8   8199783    36126.
##  8 Bahrain     Asia       2007    75.6    708573    29796.
##  9 Bangladesh  Asia       2007    64.1 150448339     1391.
## 10 Belgium     Europe     2007    79.4  10392226    33693.
## # ... with 1,694 more rows

arrange

Pode comportar tantas colunas quantas aquelas que você desejar.

arrange(.data = gapminder, desc(year), lifeExp)

## # A tibble: 1,704 x 6
##    country                  continent  year lifeExp      pop gdpPercap
##    <fct>                    <fct>     <int>   <dbl>    <int>     <dbl>
##  1 Swaziland                Africa     2007    39.6  1133066     4513.
##  2 Mozambique               Africa     2007    42.1 19951656      824.
##  3 Zambia                   Africa     2007    42.4 11746035     1271.
##  4 Sierra Leone             Africa     2007    42.6  6144562      863.
##  5 Lesotho                  Africa     2007    42.6  2012649     1569.
##  6 Angola                   Africa     2007    42.7 12420476     4797.
##  7 Zimbabwe                 Africa     2007    43.5 12311143      470.
##  8 Afghanistan              Asia       2007    43.8 31889923      975.
##  9 Central African Republic Africa     2007    44.7  4369038      706.
## 10 Liberia                  Africa     2007    45.7  3193942      415.
## # ... with 1,694 more rows
…
Qual foi o projeto que mais gastou recursos dentre aqueles financiados pelo CNPq?

Qual foi o coordenador que terminou o doutorado há mais tempo?

Qual o coordenador que tem o maior índice H e não fez pós-doutorado?

select

Utilizada para selecionar uma ou mais colunas de acordo com seu nome.

# somente o pais, ano e gdp per capita
select(.data = gapminder, country, year, gdpPercap)

## # A tibble: 1,704 x 3
##    country      year gdpPercap
##    <fct>       <int>     <dbl>
##  1 Afghanistan  1952      779.
##  2 Afghanistan  1957      821.
##  3 Afghanistan  1962      853.
##  4 Afghanistan  1967      836.
##  5 Afghanistan  1972      740.
##  6 Afghanistan  1977      786.
##  7 Afghanistan  1982      978.
##  8 Afghanistan  1987      852.
##  9 Afghanistan  1992      649.
## 10 Afghanistan  1997      635.
## # ... with 1,694 more rows

select

Utilizada para selecionar uma ou mais colunas de acordo com seu nome.

# apenas algumas variáveis e reordenando elas
select(.data = gapminder, gdpPercap, country:lifeExp)

## # A tibble: 1,704 x 5
##    gdpPercap country     continent  year lifeExp
##        <dbl> <fct>       <fct>     <int>   <dbl>
##  1      779. Afghanistan Asia       1952    28.8
##  2      821. Afghanistan Asia       1957    30.3
##  3      853. Afghanistan Asia       1962    32.0
##  4      836. Afghanistan Asia       1967    34.0
##  5      740. Afghanistan Asia       1972    36.1
##  6      786. Afghanistan Asia       1977    38.4
##  7      978. Afghanistan Asia       1982    39.9
##  8      852. Afghanistan Asia       1987    40.8
##  9      649. Afghanistan Asia       1992    41.7
## 10      635. Afghanistan Asia       1997    41.8
## # ... with 1,694 more rows
…
filter

Utilizada para filtrar uma tabela de acordo com as condições que você determina.

# dados das Americas, apenas os 20 últimos anos
filter(.data = gapminder, continent == "Americas", year > 1996)

## # A tibble: 75 x 6
##    country   continent  year lifeExp       pop gdpPercap
##    <fct>     <fct>     <int>   <dbl>     <int>     <dbl>
##  1 Argentina Americas   1997    73.3  36203463    10967.
##  2 Argentina Americas   2002    74.3  38331121     8798.
##  3 Argentina Americas   2007    75.3  40301927    12779.
##  4 Bolivia   Americas   1997    62.0   7693188     3326.
##  5 Bolivia   Americas   2002    63.9   8445134     3413.
##  6 Bolivia   Americas   2007    65.6   9119152     3822.
##  7 Brazil    Americas   1997    69.4 168546719     7958.
##  8 Brazil    Americas   2002    71.0 179914212     8131.
##  9 Brazil    Americas   2007    72.4 190010647     9066.
## 10 Canada    Americas   1997    78.6  30305843    28955.
## # ... with 65 more rows

filter

Utilizada para filtrar uma tabela de acordo com as condições que você determina.

# dados das Americas e Europa, apenas os 20 últimos anos
filter(.data = gapminder, continent == "Americas" | continent == "Europe", year > 1996)

## # A tibble: 165 x 6
##    country   continent  year lifeExp      pop gdpPercap
##    <fct>     <fct>     <int>   <dbl>    <int>     <dbl>
##  1 Albania   Europe     1997    73.0  3428038     3193.
##  2 Albania   Europe     2002    75.7  3508512     4604.
##  3 Albania   Europe     2007    76.4  3600523     5937.
##  4 Argentina Americas   1997    73.3 36203463    10967.
##  5 Argentina Americas   2002    74.3 38331121     8798.
##  6 Argentina Americas   2007    75.3 40301927    12779.
##  7 Austria   Europe     1997    77.5  8069876    29096.
##  8 Austria   Europe     2002    79.0  8148312    32418.
##  9 Austria   Europe     2007    79.8  8199783    36126.
## 10 Belgium   Europe     1997    77.5 10199787    27561.
## # ... with 155 more rows

filter

Podemos utilizar o argumento lógico %in% para selecionar múltiplos elementos de uma mesma coluna.

# dados das Americas Europa e Oceania, apenas os 20 últimos anos
filter(.data = gapminder, continent %in% c("Americas", "Europe", "Oceania"), year > 1996)

## # A tibble: 171 x 6
##    country   continent  year lifeExp      pop gdpPercap
##    <fct>     <fct>     <int>   <dbl>    <int>     <dbl>
##  1 Albania   Europe     1997    73.0  3428038     3193.
##  2 Albania   Europe     2002    75.7  3508512     4604.
##  3 Albania   Europe     2007    76.4  3600523     5937.
##  4 Argentina Americas   1997    73.3 36203463    10967.
##  5 Argentina Americas   2002    74.3 38331121     8798.
##  6 Argentina Americas   2007    75.3 40301927    12779.
##  7 Australia Oceania    1997    78.8 18565243    26998.
##  8 Australia Oceania    2002    80.4 19546792    30688.
##  9 Australia Oceania    2007    81.2 20434176    34435.
## 10 Austria   Europe     1997    77.5  8069876    29096.
## # ... with 161 more rows

filter

E podemos criar uma função para fazer o inverso do %in%!

## criando a função
`%nin%` <- Negate(f = `%in%`)

## removendo os dados das Americas, Europa e Oceania
filter(.data = gapminder, continent %nin% c("Americas", "Europe", "Oceania"), year > 1996)

## # A tibble: 255 x 6
##    country     continent  year lifeExp      pop gdpPercap
##    <fct>       <fct>     <int>   <dbl>    <int>     <dbl>
##  1 Afghanistan Asia       1997    41.8 22227415      635.
##  2 Afghanistan Asia       2002    42.1 25268405      727.
##  3 Afghanistan Asia       2007    43.8 31889923      975.
##  4 Algeria     Africa     1997    69.2 29072015     4797.
##  5 Algeria     Africa     2002    71.0 31287142     5288.
##  6 Algeria     Africa     2007    72.3 33333216     6223.
##  7 Angola      Africa     1997    41.0  9875024     2277.
##  8 Angola      Africa     2002    41.0 10866106     2773.
##  9 Angola      Africa     2007    42.7 12420476     4797.
## 10 Bahrain     Asia       1997    73.9   598561    20292.
## # ... with 245 more rows
Exercício 10

Quais foram os projetos financiados no estado do Rio de Janeiro?

Quais os projetos financiados no estado do Rio de Janeiro foram coordenados por mulheres?

Onde estão localizados os bolsistas de produtividade 1C ou 1D que mais gastaram recursos?

mutate

Cria uma nova coluna na tabela de dados, inclusive usando as próprias colunas que estão sendo criadas dentro da função naquele momento.

mutate(.data = gapminder, log_gdp = log(gdpPercap), exp_gdp = exp(log_gdp))

## # A tibble: 1,704 x 8
##    country     continent  year lifeExp      pop gdpPercap log_gdp exp_gdp
##    <fct>       <fct>     <int>   <dbl>    <int>     <dbl>   <dbl>   <dbl>
##  1 Afghanistan Asia       1952    28.8  8425333      779.    6.66    779.
##  2 Afghanistan Asia       1957    30.3  9240934      821.    6.71    821.
##  3 Afghanistan Asia       1962    32.0 10267083      853.    6.75    853.
##  4 Afghanistan Asia       1967    34.0 11537966      836.    6.73    836.
##  5 Afghanistan Asia       1972    36.1 13079460      740.    6.61    740.
##  6 Afghanistan Asia       1977    38.4 14880372      786.    6.67    786.
##  7 Afghanistan Asia       1982    39.9 12881816      978.    6.89    978.
##  8 Afghanistan Asia       1987    40.8 13867957      852.    6.75    852.
##  9 Afghanistan Asia       1992    41.7 16317921      649.    6.48    649.
## 10 Afghanistan Asia       1997    41.8 22227415      635.    6.45    635.
## # ... with 1,694 more rows

transmute

Similar ao mutate, mas elimina todas as outras colunas ao retornar o resultado

transmute(.data = gapminder, log_gdp = log(gdpPercap), exp_gdp = exp(log_gdp))

## # A tibble: 1,704 x 2
##    log_gdp exp_gdp
##      <dbl>   <dbl>
##  1    6.66    779.
##  2    6.71    821.
##  3    6.75    853.
##  4    6.73    836.
##  5    6.61    740.
##  6    6.67    786.
##  7    6.89    978.
##  8    6.75    852.
##  9    6.48    649.
## 10    6.45    635.
## # ... with 1,694 more rows

Exercício 11

Crie uma nova coluna na tabelas processos que seja a combinação das colunas cidade e uf.

group_by

Agrupa as observações de acordo com os níveis de uma ou mais variáveis presentes nas colunas. É excelente para ser combinado com outras funções.

group_by(.data = gapminder, continent)

## # A tibble: 1,704 x 6
## # Groups:   continent [5]
##    country     continent  year lifeExp      pop gdpPercap
##    <fct>       <fct>     <int>   <dbl>    <int>     <dbl>
##  1 Afghanistan Asia       1952    28.8  8425333      779.
##  2 Afghanistan Asia       1957    30.3  9240934      821.
##  3 Afghanistan Asia       1962    32.0 10267083      853.
##  4 Afghanistan Asia       1967    34.0 11537966      836.
##  5 Afghanistan Asia       1972    36.1 13079460      740.
##  6 Afghanistan Asia       1977    38.4 14880372      786.
##  7 Afghanistan Asia       1982    39.9 12881816      978.
##  8 Afghanistan Asia       1987    40.8 13867957      852.
##  9 Afghanistan Asia       1992    41.7 16317921      649.
## 10 Afghanistan Asia       1997    41.8 22227415      635.
## # ... with 1,694 more rows
…
group_by + summarise

Podemos agrupar os dados de acordo com várias colunas.

Para quebrar o agrupamento basta utilizarmos a função ungroup.

## expectativamente de vida media por continente por ano
summarise(.data = group_by(.data = gapminder, continent, year), expectativa_media = mean(lifeExp))

## # A tibble: 60 x 3
## # Groups:   continent [?]
##    continent  year expectativa_media
##    <fct>     <int>             <dbl>
##  1 Africa     1952              39.1
##  2 Africa     1957              41.3
##  3 Africa     1962              43.3
##  4 Africa     1967              45.3
##  5 Africa     1972              47.5
##  6 Africa     1977              49.6
##  7 Africa     1982              51.6
##  8 Africa     1987              53.3
##  9 Africa     1992              53.6
## 10 Africa     1997              53.6
## # ... with 50 more rows
…
Exercício 14

Determine o número médio, mínimo e máximo do número de citações recebidas em cada uma das revistas onde os artigos científicos foram publicados (dados presentes no objeto __publicacoes).

Repita o procedimento acima, mas calcule também o desvio padrão e o número total de artigos publicados em cada revista (utilize a função n() para tal).

drop_na

Uma das formas de remover as linhas contendo NA na base do R é através da indexação por lógica, utilizando o is.na.

Você pode fazer a mesma coisa no tidyverse, utilizando a função drop_na - especificando inclusive de qual coluna você quer que os NA sejam removidas.

drop_na(data = publicacoes, citacoes)

## # A tibble: 548 x 6
##       Processo    id titulo                    journal      ISSN  citacoes
##          <dbl> <dbl> <chr>                     <chr>        <chr>    <dbl>
##  1 40060020137     1 Larval Biology of Anthop… Journal of … 1536…        4
##  2 40060020137     2 Seasonal variation in di… Biotropica   0106…        0
##  3 40060020137     3 Biology of the immature … Revista Bra… 0085…        3
##  4 40060020137     4 Immature Stages and Ecol… Journal of … 0024…        0
##  5 40060020137     5 Importance of Habitat He… Environment… 0046…        2
##  6 40060020137     6 Sexual Dimorphism and Al… Journal of … 1536…        0
##  7 40060020137     7 Species composition and … Zoologia (C… 1984…        3
##  8 40060020137     8 Temporal Dynamics of Fru… Florida Ent… 0015…        0
##  9 40060020137     9 Temporal Occurrence of T… Environment… 0046…        2
## 10 40060020137    10 The Abundance of Special… Florida Ent… 0015…        0
## # ... with 538 more rows

separate

Utilizado para separar as informações de uma coluna em várias colunas diferentes.

projetos %>% 
  separate(col = inicio, into = c("dia", "mes", "ano"), sep = "/")

## # A tibble: 119 x 28
##     processo chamada        id_coordenador sexo  dia   mes   ano   termino
##        <dbl> <chr>                   <int> <chr> <chr> <chr> <chr> <chr>  
##  1   4.86e10 Universal - F…              1 M     06    11    12    05/11/…
##  2   4.01e10 BJT                         2 F     12    09    12    11/09/…
##  3   4.82e10 Universal - F…              3 M     08    11    13    30/11/…
##  4   4.72e10 Universal - F…              4 F     14    12    12    31/12/…
##  5   4.76e10 Universal - F…              5 M     30    10    13    31/10/…
##  6   4.82e10 Universal - F…              6 M     07    05    13    05/05/…
##  7   4.80e10 Universal - F…              7 M     19    11    12    18/11/…
##  8   4.46e10 Incubadoras                 8 M     02    08    16    31/12/…
##  9   4.58e10 PPBio - Rede …              9 M     12    12    12    11/12/…
## 10   4.72e10 Universal - F…             10 M     28    11    12    30/11/…
## # ... with 109 more rows, and 20 more variables: instituicao <chr>,
## #   uf <chr>, cidade <chr>, regiao <chr>, duracao <int>, brasileiro <chr>,
## #   produtividade <chr>, doutorado <int>, doutorado_exterior <chr>,
## #   sanduiche <chr>, posdoc <chr>, indiceh <int>, bolsa_contratado <dbl>,
## #   bolsa_gasto <int>, capital_contratado <dbl>, capital_gasto <dbl>,
## #   custeio_contratado <dbl>, custeio_gasto <dbl>, total_fornecido <dbl>,
## #   total_gasto <dbl>
…
