Apresentação de Resultados
…
Extraindo predições vindas de variáveis contínuas

No entanto, também podemos fornecer um novo conjunto de dados a partir dos quais novas predições serão geradas.

predizer <- data.frame(area = seq(from = 1, to = 140000, by = 1), ilha = "costeira")
predizer

## # A tibble: 140,000 x 2
##     area ilha    
##    <dbl> <fct>   
##  1     1 costeira
##  2     2 costeira
##  3     3 costeira
##  4     4 costeira
##  5     5 costeira
##  6     6 costeira
##  7     7 costeira
##  8     8 costeira
##  9     9 costeira
## 10    10 costeira
## # ... with 139,990 more rows
…
Extraindo predições vindas de variáveis contínuas

Em todo o caso, o que você precisa fazer para poder ter o data.frame com o qual plotar os resultados é unir o resultado do predict à tabela que foi usada para dar origem a esses valores.

library(tidyverse)
cbind.data.frame(predizer, preditos = predict(object = modelo2, newdata = predizer)) %>% 
  tbl_df

## # A tibble: 140,000 x 3
##     area ilha     preditos
##  * <dbl> <fct>       <dbl>
##  1     1 costeira     3.07
##  2     2 costeira     3.14
##  3     3 costeira     3.17
##  4     4 costeira     3.20
##  5     5 costeira     3.22
##  6     6 costeira     3.24
##  7     7 costeira     3.25
##  8     8 costeira     3.26
##  9     9 costeira     3.28
## 10    10 costeira     3.28
## # ... with 139,990 more rows
…
O pacote broom oferece algumas funções para tornar a extração dos resultados dos modelos bem atrativa, através de três funções:

augment: retorna uma tabela com os valores preditos pelo modelo, bem como diversas métricas relativas à influência de cada observação para as estimativas feitas pelo modelo.

glance: retorna uma tabela com as métricas de ajuste do modelo.

tidy: retorna a tabela do summary do modelo já formata de forma mais elegante.

O pacote broom

library(broom)
augment(x = modelo2)

## # A tibble: 80 x 10
##    log.riqueza. log.area. ilha     .fitted .se.fit   .resid   .hat .sigma
##  *        <dbl>     <dbl> <chr>      <dbl>   <dbl>    <dbl>  <dbl>  <dbl>
##  1         3.04     0.411 costeira    3.11  0.0763 -0.0662  0.0411  0.379
##  2         3.30     3.11  costeira    3.36  0.0601 -0.0633  0.0255  0.379
##  3         3.14     3.71  costeira    3.41  0.0630 -0.279   0.0280  0.377
##  4         2.30     7.67  oceanica    3.19  0.0960 -0.883   0.0651  0.364
##  5         3.53     6.91  costeira    3.71  0.105  -0.183   0.0784  0.378
##  6         2.56     3.67  oceanica    2.42  0.0597  0.141   0.0252  0.378
##  7         3.76     3.66  costeira    3.41  0.0626  0.351   0.0277  0.377
##  8         2.48     1.81  oceanica    2.07  0.0658  0.415   0.0305  0.376
##  9         2.56     5.76  oceanica    2.82  0.0726 -0.257   0.0373  0.378
## 10         3.47     4.36  costeira    3.47  0.0686 -0.00883 0.0333  0.379
## # ... with 70 more rows, and 2 more variables: .cooksd <dbl>,
## #   .std.resid <dbl>
…
Extraia as métricas relacionadas ao ajuste dos três modelos que utilizamos até aqui (glance; 2 modelos que utilizamos como exemplo e mais o modelo que você trabalhou no exercício anterior) e armazene eles em um único objeto.

Adicione algum tipo de identificador às informações de cada modelo.

Exporte este objeto para algum diretório do seu computador, utilizando a extensão .csv.

Visualização dos resultados de um modelo estatístico {#anchor3}

Como vimos até aqui, podemos gerar os valores preditos por um modelo e adicioná-los a um data.frame, com o intuito de utilizar esta informação, por exemplo, para confeccionar uma figura.

ilhas <- mutate(ilhas, log_riqueza_predita = predict(modelo2))
ilhas

## # A tibble: 80 x 13
##    ID     ilha  arquipelago riqueza   area produtividade populacao habitat
##    <chr>  <chr> <chr>         <dbl>  <dbl>         <dbl>     <dbl>   <dbl>
##  1 ilha_1 cost… medio            21 1.51e0          1.57      268.       2
##  2 ilha_… cost… medio            27 2.24e1          4.56      259.       2
##  3 ilha_… cost… pequeno          23 4.11e1          2.19      281.       3
##  4 ilha_… ocea… pequeno          10 2.13e3       2013.        145.       5
##  5 ilha_… cost… medio            34 1.00e3        244.        516.       4
##  6 ilha_… ocea… medio            13 3.92e1          3.17      579.       3
##  7 ilha_… cost… grande           43 3.89e1         18.4       389.       2
##  8 ilha_… ocea… grande           12 6.12e0          4.40      232.       3
##  9 ilha_… ocea… pequeno          13 3.17e2         14.3       156.       4
## 10 ilha_… cost… medio            32 7.86e1         35.8       403.       3
## # ... with 70 more rows, and 5 more variables: montanha <chr>,
## #   mamiferos <dbl>, temperatura <dbl>, precipitacao <dbl>,
## #   log_riqueza_predita <dbl>
…
